{
  "project_info": {
    "project_number": "1023179497362",
    "firebase_url": "https://vehicleinfo-96972.firebaseio.com",
    "project_id": "vehicleinfo-96972",
    "storage_bucket": "vehicleinfo-96972.appspot.com"
  },
  "client": [
    {
      "client_info": {
        "mobilesdk_app_id": "1:1023179497362:android:3215865ca16fc7bd",
        "android_client_info": {
          "package_name": "com.yesparking.manager.db"
        }
      },
      "oauth_client": [
        {
          "client_id": "1023179497362-bjdqu1l5jgl794dcq9vh6fp06p71tvnr.apps.googleusercontent.com",
          "client_type": 1,
          "android_info": {
            "package_name": "com.yesparking.manager.db",
            "certificate_hash": "47136042f804b0f535bcb56d1fe83487cf756403"
          }
        },
        {
          "client_id": "1023179497362-h0uuca38de6enlqqd7kok5q7cboqu73r.apps.googleusercontent.com",
          "client_type": 1,
          "android_info": {
            "package_name": "com.yesparking.manager.db",
            "certificate_hash": "750a27d7d9d8d2959222666ef4ee414d8c06ed45"
          }
        },
        {
          "client_id": "1023179497362-j3s8eukhhfe01n7ukkjope0vuvkc6dub.apps.googleusercontent.com",
          "client_type": 3
        }
      ],
      "api_key": [
        {
          "current_key": "AIzaSyB5utnqzGxlTd-puvZXHjoZyzdYh7K1lus"
        }
      ],
      "services": {
        "analytics_service": {
          "status": 1
        },
        "appinvite_service": {
          "status": 2,
          "other_platform_oauth_client": [
            {
              "client_id": "1023179497362-j3s8eukhhfe01n7ukkjope0vuvkc6dub.apps.googleusercontent.com",
              "client_type": 3
            }
          ]
        },
        "ads_service": {
          "status": 2
        }
      }
    }
  ],
  "configuration_version": "1"
}